{
	"data": [
		{
			"id": 1,
			"type": "dashboard",
			"name": "Dashboard",
			"description": "Widok startowy aplikacji z podstawowymi komponentami.",
			"toolTip": "Dashboard",
			"iconClass": "mdi mdi-view-dashboard",
			"favourite": "show",
			"widgets": [
				{
					"id": 1,
					"settings": {
						"type": "history-operation",
						"header": "Historia operacji",
						"description": "Przeglądanie historii operacji",
						"icon": "history"
					},
					"position": {
						"top": 1,
						"left": 61,
						"height": 42,
						"width": 60
					},
					"active": true,
					"type": "table",
					"workInProgress": true
				},
				{
					"id": 2,
					"settings": {
						"type": "shortcut",
						"header": "Co chcesz zrobić?",
						"description": "Podstawowe skróty aplikacji"
					},
					"position": {
						"top": 43,
						"left": 91,
						"height": 38,
						"width": 30
					},
					"active": true,
					"type": "default",
					"workInProgress": true
				},
				{
					"id": 3,
					"settings": {
						"type": "monitor-system",
						"header": "System",
						"description": "Monitorowanie parametrów pamięci operacyjnej RAM oraz procesora"
					},
					"position": {
						"top": 1,
						"left": 1,
						"height": 42,
						"width": 30
					},
					"active": true,
					"type": "default",
					"workInProgress": false
				},
				{
					"id": 4,
					"settings": {
						"type": "monitor-disk",
						"header": "Dyski",
						"description": "Monitorowanie dysków systemowych"
					},
					"position": {
						"top": 1,
						"left": 31,
						"height": 42,
						"width": 30
					},
					"active": true,
					"type": "default",
					"workInProgress": false
				},
				{
					"id": 5,
					"settings": {
						"type": "statistics",
						"header": "CPU",
						"description": "Bieżące statystyki systemu i aplikacji"
					},
					"position": {
						"top": 43,
						"left": 1,
						"height": 38,
						"width": 30
					},
					"data": "processor",
					"active": true,
					"type": "default",
					"workInProgress": false
				},
				{
					"id": 6,
					"settings": {
						"type": "statistics",
						"header": "RAM",
						"description": "Bieżące statystyki systemu i aplikacji"
					},
					"data": "memory",
					"position": {
						"top": 43,
						"left": 31,
						"height": 38,
						"width": 30
					},
					"active": true,
					"type": "default",
					"workInProgress": false
				},
				{
					"id": 7,
					"settings": {
						"type": "calendar",
						"header": "Kalendarz",
						"description": ""
					},
					"position": {
						"top": 43,
						"left": 61,
						"height": 38,
						"width": 30
					},
					"active": true,
					"type": "default",
					"workInProgress": false
				}
			],
			"active": true
		},
		{
			"id": 101,
			"type": "guacamole",
			"name": "Test Guacamole",
			"description": "Test Apache guacamole.",
			"toolTip": "Test Guacamole",
			"iconClass": "mdi mdi-remote-desktop",
			"favourite": "hide",
			"widgets": [
				{
					"id": 1,
					"settings": {
						"type": "guacamole",
						"header": "Windows 10",
						"description": "Pulpit zdalny"
					},
					"position": {
						"top": 1,
						"left": 1,
						"height": 40,
						"width": 60
					},
					"active": true,
					"type": "guacamole",
					"workInProgress": false,
					"data": {
						"hostname": "192.168.88.130",
						"port": 5900,
						"dpi": 96,
						"protocol": "vnc",
						"image": "image/png",
						"ignore-cert": "false"
					}
				},
				{
					"id": 2,
					"settings": {
						"type": "guacamole",
						"header": "Windows Server",
						"description": "Pulpit zdalny"
					},
					"position": {
						"top": 1,
						"left": 61,
						"height": 40,
						"width": 60
					},
					"active": true,
					"type": "guacamole",
					"workInProgress": false,
					"data": {
						"hostname": "192.168.88.131",
						"port": 5900,
						"dpi": 96,
						"protocol": "vnc",
						"image": "image/png",
						"ignore-cert": "false"
					}
				},
				{
					"id": 3,
					"settings": {
						"type": "guacamole",
						"header": "Windows Server",
						"description": "Pulpit zdalny"
					},
					"position": {
						"top": 41,
						"left": 1,
						"height": 40,
						"width": 60
					},
					"active": true,
					"type": "guacamole",
					"workInProgress": false,
					"data": {
						"hostname": "192.168.88.131",
						"port": 3390,
						"dpi": 96,
						"protocol": "rdp",
						"image": "image/png",
						"ignore-cert": "false"
					}
				},
				{
					"id": 4,
					"settings": {
						"type": "guacamole",
						"header": "CENTOS 8",
						"description": "Pulpit zdalny"
					},
					"position": {
						"top": 41,
						"left": 61,
						"height": 40,
						"width": 60
					},
					"active": true,
					"type": "guacamole",
					"workInProgress": false,
					"data": {
						"hostname": "192.168.88.128",
						"port": 22,
						"dpi": 96,
						"protocol": "ssh",
						"image": "image/png"
					}
				}
			],
			"active": false
		},
		{
			"id": 102,
			"type": "remote-desktops",
			"name": "Pulpity zdalne",
			"description": "Pulpity zdalne.",
			"toolTip": "Pulpity zdalne",
			"iconClass": "mdi mdi-lan-connect",
			"favourite": "hide",
			"widgets": [
				{
					"id": 1,
					"settings": {
						"type": "remote-desktops",
						"header": "Lista pulpitów zdalnych",
						"description": "Przeglądanie komputerów"
					},
					"position": {
						"top": 1,
						"left": 1,
						"height": 80,
						"width": 120
					},
					"active": true,
					"type": "table",
					"workInProgress": false
				}
			],
			"active": true
		},
		{
			"id": 2,
			"type": "system-management",
			"name": "Zarządzanie",
			"description": "Zarządzanie kontami użytkowników oraz uprawnieniami.",
			"toolTip": "Zarządzanie",
			"iconClass": "mdi mdi-cog",
			"favourite": "show",
			"subdashboards": [
				{
					"type": "applications",
					"name": "Aplikacje",
					"toolTip": "Aplikacje",
					"iconClass": "mdi mdi-apps",
					"widgets": [
						{
							"id": 1,
							"settings": {
								"type": "applications",
								"header": "Lista aplikacji",
								"description": "Przeglądanie aplikacji"
							},
							"position": {
								"top": 1,
								"left": 1,
								"height": 80,
								"width": 120
							},
							"active": true,
							"type": "table",
							"workInProgress": false
						}
					],
					"active": true
				},
				{
					"type": "users",
					"name": "Użytkownicy",
					"toolTip": "Użytkownicy",
					"iconClass": "mdi mdi-account-cog",
					"widgets": [
						{
							"id": 1,
							"params": [{ "symbol": "pairs", "values": [] }],
							"settings": {
								"type": "users",
								"header": "Lista użytkowników",
								"description": "Przeglądanie użytkowników w systemie"
							},
							"position": {
								"top": 1,
								"left": 1,
								"height": 80,
								"width": 80
							},
							"active": true,
							"type": "table",
							"workInProgress": false
						},
						{
							"id": 2,
							"settings": {
								"type": "users-audit",
								"header": "Historia operacji",
								"description": "Przeglądanie historii operacji"
							},
							"position": {
								"top": 1,
								"left": 81,
								"height": 80,
								"width": 40
							},
							"active": true,
							"type": "table",
							"workInProgress": false
						}
					],
					"active": true
				},
				{
					"type": "roles",
					"name": "Role dostępu",
					"toolTip": "Role dostępu",
					"iconClass": "mdi mdi-account-key",
					"widgets": [
						{
							"id": 1,
							"settings": {
								"type": "roles",
								"header": "Lista ról",
								"description": "Przeglądanie dostępnych ról w systemie"
							},
							"position": {
								"top": 1,
								"left": 1,
								"height": 80,
								"width": 120
							},
							"active": true,
							"type": "table",
							"workInProgress": false
						}
					],
					"active": true
				},
				{
					"type": "permissions",
					"name": "Uprawnienia dostępu",
					"toolTip": "Uprawnienia dostępu",
					"iconClass": "mdi mdi-account-key",
					"widgets": [
						{
							"id": 1,
							"settings": {
								"type": "permissions",
								"header": "Lista uprawnień",
								"description": "Przeglądanie dostępnych uprawnień w systemie"
							},
							"position": {
								"top": 1,
								"left": 1,
								"height": 80,
								"width": 120
							},
							"active": true,
							"type": "table",
							"workInProgress": false
						}
					],
					"active": true
				},
				{
					"type": "groups-users",
					"name": "Grupy użytkowników",
					"toolTip": "Grupy użytkowników",
					"iconClass": "mdi mdi-account-group",
					"widgets": [
						{
							"id": 1,
							"settings": {
								"type": "groups-users",
								"header": "Lista grup użytkowników",
								"description": "Przeglądanie grup"
							},
							"position": {
								"top": 1,
								"left": 1,
								"height": 80,
								"width": 120
							},
							"active": true,
							"type": "table",
							"workInProgress": false
						}
					],
					"active": true
				},
				{
					"type": "groups-resources",
					"name": "Grupy zasobów",
					"toolTip": "Grupy zasobów",
					"iconClass": "mdi mdi-account-group",
					"widgets": [
						{
							"id": 1,
							"settings": {
								"type": "groups-resources",
								"header": "Lista grup zasobów",
								"description": "Przeglądanie zasobów"
							},
							"position": {
								"top": 1,
								"left": 1,
								"height": 80,
								"width": 120
							},
							"active": true,
							"type": "table",
							"workInProgress": false
						}
					],
					"active": true
				}
			],
			"active": true
		},
		{
			"id": 3,
			"type": "generating-generating",
			"name": "Generowanie raportów",
			"description": "Moduł generowania raportów i statystyk.",
			"toolTip": "Generowanie raportów",
			"iconClass": "mdi mdi-printer",
			"favourite": "show",
			"widgets": [
				{
					"id": 1,
					"settings": {
						"type": "generating-generating",
						"header": "Generowanie raportów",
						"description": "Moduł generowania raportów i statystyk.",
						"icon": "history"
					},
					"position": {
						"top": 1,
						"left": 1,
						"height": 80,
						"width": 120
					},
					"active": true,
					"type": "table",
					"workInProgress": true
				}
			],
			"active": false
		},
		{
			"id": 4,
			"type": "event-log",
			"name": "Dziennik zdarzeń",
			"description": "Historia wykonywanych operacji w systemie przez użytkowników.",
			"toolTip": "Dziennik zdarzeń",
			"iconClass": "mdi mdi-book-open-outline",
			"favourite": "show",
			"widgets": [
				{
					"id": 1,
					"settings": {
						"type": "event-log",
						"header": "Dziennik zdarzeń",
						"description": "Historia wykonywanych operacji w systemie przez użytkowników.",
						"icon": "history"
					},
					"position": {
						"top": 1,
						"left": 1,
						"height": 80,
						"width": 120
					},
					"active": true,
					"type": "table",
					"workInProgress": true
				}
			],
			"active": false
		},
		{
			"id": 7,
			"type": "notifications",
			"name": "Powiadomienia",
			"description": "Moduł przeglądania i odbierania powiadomień w systemie.",
			"toolTip": "Powiadomienia",
			"favourite": "show",
			"iconClass": "mdi mdi-bell-outline",
			"widgets": [
				{
					"id": 1,
					"settings": {
						"type": "notifications",
						"header": "Powiadomienia",
						"description": "Moduł przeglądania i odbierania powiadomień w systemie.",
						"icon": "history"
					},
					"position": {
						"top": 1,
						"left": 1,
						"height": 80,
						"width": 120
					},
					"active": true,
					"type": "table",
					"workInProgress": false
				}
			],
			"active": true
		},
		{
			"id": 9,
			"type": "snake",
			"name": "Gra Snake",
			"description": "",
			"toolTip": "Gra Snake",
			"favourite": "hide",
			"iconClass": "mdi mdi-snake",
			"widgets": [
				{
					"id": 1,
					"settings": {
						"type": "snake",
						"header": "Gra Snake",
						"description": ""
					},
					"position": {
						"top": 1,
						"left": 81,
						"height": 120,
						"width": 80
					},
					"active": true,
					"type": "default",
					"workInProgress": false
				}
			],
			"active": true
		}
	]
}
